
=== 概念 ===============================================================================

	--- PHP Session 與 Cookie 的比較 ---------------------------------
	Session：太多"伺服器" 對  不好
	儲存於伺服器端，不用擔心用戶禁用session的問題，但計錄檔案的負荷由伺服器承擔。
	//肥伺服器

	Cookie： 儲存於用戶端，  可能有用戶端禁用cookie，但伺服器不需承擔計錄檔案的負荷。
	//肥客戶


=== Cookie =====================================================================================

	//---第一步、啟用 cookie-----------------------------------------------------------
	setcookie("變數名稱","變數值","存活時間","路徑","網域");
	setcookie("user","kitty","time()+3600"); //變數叫user,值是kitty,儲存的時間為 3600 秒

	//---第二步、讀取 cookie----------------------------------------------------------
	<?php echo $COOKIE["user"] ?>  //會打印出kitty


	//---第三步、刪除 cookie---------------------------------------------------------
	把 cookie 刪掉,用setcookie,變數值給空值即可，時間一併剪掉保險
	setcookie("user","","time()-3600");


=== Session =====================================================================================
	//---啟用-Session----------------------------------------------------------

	<?php 	//session_start一定要放在網頁的最上方還沒有輸出任何東西之前
		session_start(); 
	?>  

	$_SESSION["i"]=10; //令一個 變數i,給值10  ,接著這個 number=10 就存在伺服器上囉！基本上這樣最簡單的 session 就設定好了。


	//---刪除-Session---------

	unset($_SESSION['i']);  //刪除1筆 SESSION['i']

	session_destroy();      //刪除全部SESSION


	//---常用函式
	session_start：啟用一個新的或開啟正在使用中的session。
	session_destroy：清除正在使用中的 session。
	session_name：取得正在使用中的名稱或將名稱更新為新的名稱。
	session_module_name：取得或更新正在使用中的模組。
	session_save_path：存取目前使用中的 session 路徑。
	session_id：存取目前使用中的 id。
	session_register：註冊一組新的 session。
	session_unregister：刪除一個正在使用中的 session。
	session_is_registered：檢查目前使用中是否已經有此變數。
	session_decode：資料解碼，解碼成功回傳 true。
	session_encode：資料編碼，編碼成功回傳 true。

=== cookie最典型的應用 ===================================================

	（一）：判斷用戶是否登陸過網站，以便下次登錄時能夠直接登錄。如果我們刪除cookie，則每次登錄必須從新填寫登錄的相關信息。
	（二）：另一個重要的應用是“購物車”中類的處理和設計。
	用戶可能在一段時間內在同一家網站的不同頁面選擇不同的商品，
	可以將這些信息都寫入cookie，在最後付款時從cookie中提取這些信息，
	當然這裏面有了安全和性能問題需要我們考慮了。
